counter.vcd
$date
	Tue Apr 15 17:28:47 2025
$end
$version
	Icarus Verilog
$end
$timescale
	1ps
$end
$scope module tb $end
$var wire 1 ! clk_delay $end
$var wire 8 " cout [7:0] $end
$var reg 8 # addr0 [7:0] $end
$var reg 1 $ clk $end
$var reg 1 % csb00 $end
$var reg 1 & csb10 $end
$var reg 32 ' din0 [31:0] $end
$var reg 1 ( enable $end
$var reg 4 ) incr [3:0] $end
$var reg 8 * pl_data [7:0] $end
$var reg 1 + preload $end
$var reg 1 , reset $end
$var reg 1 - updn $end
$var reg 32 . value [31:0] $end
$var reg 1 / web0 $end
$var reg 4 0 wmask0 [3:0] $end
$scope module dut $end
$var wire 7 1 addr0 [6:0] $end
$var wire 1 $ clk $end
$var wire 1 % csb00 $end
$var wire 1 & csb10 $end
$var wire 32 2 din0 [31:0] $end
$var wire 1 ( enable $end
$var wire 4 3 incr [3:0] $end
$var wire 7 4 pl_data [6:0] $end
$var wire 1 + preload $end
$var wire 1 , reset $end
$var wire 32 5 sine_out [31:0] $end
$var wire 1 - updn $end
$var wire 1 / web0 $end
$var wire 4 6 wmask0 [3:0] $end
$var wire 32 7 temp_sine_out1 [31:0] $end
$var wire 32 8 temp_sine_out0 [31:0] $end
$var reg 8 9 cout [7:0] $end
$var reg 8 : cout_reg [7:0] $end
$var reg 32 ; reg_sine_out [31:0] $end
$scope module u_mem0 $end
$var wire 7 < addr0 [6:0] $end
$var wire 7 = addr1 [6:0] $end
$var wire 1 $ clk0 $end
$var wire 1 $ clk1 $end
$var wire 1 % csb0 $end
$var wire 1 > csb1 $end
$var wire 32 ? din0 [31:0] $end
$var wire 1 / web0 $end
$var wire 4 @ wmask0 [3:0] $end
$var reg 7 A addr0_reg [6:0] $end
$var reg 7 B addr1_reg [6:0] $end
$var reg 1 C csb0_reg $end
$var reg 1 D csb1_reg $end
$var reg 32 E din0_reg [31:0] $end
$var reg 32 F dout0 [31:0] $end
$var reg 32 G dout1 [31:0] $end
$var reg 1 H web0_reg $end
$var reg 4 I wmask0_reg [3:0] $end
$scope begin MEM_READ0 $end
$upscope $end
$scope begin MEM_READ1 $end
$upscope $end
$scope begin MEM_WRITE0 $end
$upscope $end
$upscope $end
$scope module u_mem1 $end
$var wire 7 J addr0 [6:0] $end
$var wire 7 K addr1 [6:0] $end
$var wire 1 $ clk0 $end
$var wire 1 $ clk1 $end
$var wire 1 & csb0 $end
$var wire 1 L csb1 $end
$var wire 32 M din0 [31:0] $end
$var wire 1 / web0 $end
$var wire 4 N wmask0 [3:0] $end
$var reg 7 O addr0_reg [6:0] $end
$var reg 7 P addr1_reg [6:0] $end
$var reg 1 Q csb0_reg $end
$var reg 1 R csb1_reg $end
$var reg 32 S din0_reg [31:0] $end
$var reg 32 T dout0 [31:0] $end
$var reg 32 U dout1 [31:0] $end
$var reg 1 V web0_reg $end
$var reg 4 W wmask0_reg [3:0] $end
$scope begin MEM_READ0 $end
$upscope $end
$scope begin MEM_READ1 $end
$upscope $end
$scope begin MEM_WRITE0 $end
$upscope $end
$upscope $end
$upscope $end
$scope task init_mem $end
$scope begin $ivl_for_loop0 $end
$var integer 32 X i [31:0] $end
$upscope $end
$upscope $end
$scope task preload_ $end
$var reg 4 Y n [3:0] $end
$upscope $end
$scope task stopforclk $end
$var integer 32 Z n [31:0] $end
$upscope $end
$scope task waitforclk $end
$var integer 32 [ n [31:0] $end
$upscope $end
$upscope $end
$enddefinitions $end
#0
$dumpvars
b11 [
bx Z
bx Y
bx X
bx W
xV
bx U
bx T
bx S
xR
xQ
bx P
bx O
b0 N
b0 M
0L
b0 K
b0 J
bx I
xH
bx G
bx F
bx E
xD
xC
bx B
bx A
b0 @
b0 ?
0>
b0 =
b0 <
bx ;
bx :
b0 9
bx 8
bx 7
b0 6
bx 5
b0 4
b1 3
b0 2
b0 1
b0 0
1/
bx .
1-
1,
0+
b0 *
b1 )
1(
b0 '
1&
1%
0$
b0 #
b0 "
x!
$end
#10
0!
#5000
b0 E
b0 A
b0 I
1H
1C
b0 B
0D
b0 S
b0 O
b0 W
1V
1Q
b0 P
0R
b0 :
1$
#5010
1!
#10000
0$
#10010
0!
#15000
1$
#15010
1!
#20000
0$
#20010
0!
#25000
1$
#25010
b1 [
0%
b1111 0
b1111 6
b1111 @
b1111 N
0/
b0 .
b0 X
0,
1!
#30000
0$
#30010
0!
#35000
b1 =
b1 K
b1 :
b1111 W
0V
b1111 I
0H
0C
b1 "
b1 9
1$
#35010
b1 1
b1 <
b1 J
b11001001000010101010111111 '
b11001001000010101010111111 2
b11001001000010101010111111 ?
b11001001000010101010111111 M
b1 #
b11001001000010101010111111 .
b1 X
0%
1!
#40000
0$
#40010
0!
#43000
b0 8
b0 G
#45000
b10 =
b10 K
b10 :
b0 5
b0 ;
b11001001000010101010111111 E
b1 A
b1 B
b11001001000010101010111111 S
b1 O
b1 P
b10 "
b10 9
1$
#45010
b10 1
b10 <
b10 J
b110010001111101100101111100 '
b110010001111101100101111100 2
b110010001111101100101111100 ?
b110010001111101100101111100 M
b10 #
b110010001111101100101111100 .
b10 X
0%
1!
#46000
bx 8
bx G
#50000
0$
#50010
0!
#53000
b11001001000010101010111111 8
b11001001000010101010111111 G
#55000
b11 =
b11 K
b11001001000010101010111111 5
b11001001000010101010111111 ;
b11 :
b10 P
b110010001111101100101111100 S
b10 O
b10 B
b110010001111101100101111100 E
b10 A
b11 "
b11 9
1$
#55010
b11 1
b11 <
b11 J
b1001011010101001000001001001 '
b1001011010101001000001001001 2
b1001011010101001000001001001 ?
b1001011010101001000001001001 M
b11 #
b1001011010101001000001001001 .
b11 X
0%
1!
#56000
bx 8
bx G
#60000
0$
#60010
0!
#63000
b110010001111101100101111100 8
b110010001111101100101111100 G
#65000
b100 =
b100 K
b100 :
b110010001111101100101111100 5
b110010001111101100101111100 ;
b1001011010101001000001001001 E
b11 A
b11 B
b1001011010101001000001001001 S
b11 O
b11 P
b100 "
b100 9
1$
#65010
b100 1
b100 <
b100 J
b1100100010111101001101011110 '
b1100100010111101001101011110 2
b1100100010111101001101011110 ?
b1100100010111101001101011110 M
b100 #
b1100100010111101001101011110 .
b100 X
0%
1!
#66000
bx 8
bx G
#70000
0$
#70010
0!
#73000
b1001011010101001000001001001 8
b1001011010101001000001001001 G
#75000
b101 =
b101 K
b1001011010101001000001001001 5
b1001011010101001000001001001 ;
b101 :
b100 P
b1100100010111101001101011110 S
b100 O
b100 B
b1100100010111101001101011110 E
b100 A
b101 "
b101 9
1$
#75010
b101 1
b101 <
b101 J
b1111101010110010011100101011 '
b1111101010110010011100101011 2
b1111101010110010011100101011 ?
b1111101010110010011100101011 M
b101 #
b1111101010110010011100101011 .
b101 X
0%
1!
#76000
bx 8
bx G
#80000
0$
#80010
0!
#83000
b1100100010111101001101011110 8
b1100100010111101001101011110 G
#85000
b110 =
b110 K
b110 :
b1100100010111101001101011110 5
b1100100010111101001101011110 ;
b1111101010110010011100101011 E
b101 A
b101 B
b1111101010110010011100101011 S
b101 O
b101 P
b110 "
b110 9
1$
#85010
b110 1
b110 <
b110 J
b10010110010000001000001101110 '
b10010110010000001000001101110 2
b10010110010000001000001101110 ?
b10010110010000001000001101110 M
b110 #
b10010110010000001000001101110 .
b110 X
0%
1!
#86000
bx 8
bx G
#90000
0$
#90010
0!
#93000
b1111101010110010011100101011 8
b1111101010110010011100101011 G
#95000
b111 =
b111 K
b1111101010110010011100101011 5
b1111101010110010011100101011 ;
b111 :
b110 P
b10010110010000001000001101110 S
b110 O
b110 B
b10010110010000001000001101110 E
b110 A
b111 "
b111 9
1$
#95010
b111 1
b111 <
b111 J
b10101111000100001010001000100 '
b10101111000100001010001000100 2
b10101111000100001010001000100 ?
b10101111000100001010001000100 M
b111 #
b10101111000100001010001000100 .
b111 X
0%
1!
#96000
bx 8
bx G
#100000
0$
#100010
0!
#103000
b10010110010000001000001101110 8
b10010110010000001000001101110 G
#105000
b1000 =
b1000 K
b1000 :
b10010110010000001000001101110 5
b10010110010000001000001101110 ;
b10101111000100001010001000100 E
b111 A
b111 B
b10101111000100001010001000100 S
b111 O
b111 P
b1000 "
b1000 9
1$
#105010
b1000 1
b1000 <
b1000 J
b11000111110001011100000111100 '
b11000111110001011100000111100 2
b11000111110001011100000111100 ?
b11000111110001011100000111100 M
b1000 #
b11000111110001011100000111100 .
b1000 X
0%
1!
#106000
bx 8
bx G
#110000
0$
#110010
0!
#113000
b10101111000100001010001000100 8
b10101111000100001010001000100 G
#115000
b1001 =
b1001 K
b10101111000100001010001000100 5
b10101111000100001010001000100 ;
b1001 :
b1000 P
b11000111110001011100000111100 S
b1000 O
b1000 B
b11000111110001011100000111100 E
b1000 A
b1001 "
b1001 9
1$
#115010
b1001 1
b1001 <
b1001 J
b11100000010111000001001101010 '
b11100000010111000001001101010 2
b11100000010111000001001101010 ?
b11100000010111000001001101010 M
b1001 #
b11100000010111000001001101010 .
b1001 X
0%
1!
#116000
bx 8
bx G
#120000
0$
#120010
0!
#123000
b11000111110001011100000111100 8
b11000111110001011100000111100 G
#125000
b1010 =
b1010 K
b1010 :
b11000111110001011100000111100 5
b11000111110001011100000111100 ;
b11100000010111000001001101010 E
b1001 A
b1001 B
b11100000010111000001001101010 S
b1001 O
b1001 P
b1010 "
b1010 9
1$
#125010
b1010 1
b1010 <
b1010 J
b11111000110011111100101111011 '
b11111000110011111100101111011 2
b11111000110011111100101111011 ?
b11111000110011111100101111011 M
b1010 #
b11111000110011111100101111011 .
b1010 X
0%
1!
#126000
bx 8
bx G
#130000
0$
#130010
0!
#133000
b11100000010111000001001101010 8
b11100000010111000001001101010 G
#135000
b1011 =
b1011 K
b11100000010111000001001101010 5
b11100000010111000001001101010 ;
b1011 :
b1010 P
b11111000110011111100101111011 S
b1010 O
b1010 B
b11111000110011111100101111011 E
b1010 A
b1011 "
b1011 9
1$
#135010
b1011 1
b1011 <
b1011 J
b100010001000111010010011000101 '
b100010001000111010010011000101 2
b100010001000111010010011000101 ?
b100010001000111010010011000101 M
b1011 #
b100010001000111010010011000101 .
b1011 X
0%
1!
#136000
bx 8
bx G
#140000
0$
#140010
0!
#143000
b11111000110011111100101111011 8
b11111000110011111100101111011 G
#145000
b1100 =
b1100 K
b1100 :
b11111000110011111100101111011 5
b11111000110011111100101111011 ;
b100010001000111010010011000101 E
b1011 A
b1011 B
b100010001000111010010011000101 S
b1011 O
b1011 P
b1100 "
b1100 9
1$
#145010
b1100 1
b1100 <
b1100 J
b100101001010000000110001011101 '
b100101001010000000110001011101 2
b100101001010000000110001011101 ?
b100101001010000000110001011101 M
b1100 #
b100101001010000000110001011101 .
b1100 X
0%
1!
#146000
bx 8
bx G
#150000
0$
#150010
0!
#153000
b100010001000111010010011000101 8
b100010001000111010010011000101 G
#155000
b1101 =
b1101 K
b100010001000111010010011000101 5
b100010001000111010010011000101 ;
b1101 :
b1100 P
b100101001010000000110001011101 S
b1100 O
b1100 B
b100101001010000000110001011101 E
b1100 A
b1101 "
b1101 9
1$
#155010
b1101 1
b1101 <
b1101 J
b101000001001101011100100101000 '
b101000001001101011100100101000 2
b101000001001101011100100101000 ?
b101000001001101011100100101000 M
b1101 #
b101000001001101011100100101000 .
b1101 X
0%
1!
#156000
bx 8
bx G
#160000
0$
#160010
0!
#163000
b100101001010000000110001011101 8
b100101001010000000110001011101 G
#165000
b1110 =
b1110 K
b1110 :
b100101001010000000110001011101 5
b100101001010000000110001011101 ;
b101000001001101011100100101000 E
b1101 A
b1101 B
b101000001001101011100100101000 S
b1101 O
b1101 P
b1110 "
b1110 9
1$
#165010
b1110 1
b1110 <
b1110 J
b101011000111110011010011101011 '
b101011000111110011010011101011 2
b101011000111110011010011101011 ?
b101011000111110011010011101011 M
b1110 #
b101011000111110011010011101011 .
b1110 X
0%
1!
#166000
bx 8
bx G
#170000
0$
#170010
0!
#173000
b101000001001101011100100101000 8
b101000001001101011100100101000 G
#175000
b1111 =
b1111 K
b101000001001101011100100101000 5
b101000001001101011100100101000 ;
b1111 :
b1110 P
b101011000111110011010011101011 S
b1110 O
b1110 B
b101011000111110011010011101011 E
b1110 A
b1111 "
b1111 9
1$
#175010
b1111 1
b1111 <
b1111 J
b101110000100010000101001100010 '
b101110000100010000101001100010 2
b101110000100010000101001100010 ?
b101110000100010000101001100010 M
b1111 #
b101110000100010000101001100010 .
b1111 X
0%
1!
#176000
bx 8
bx G
#180000
0$
#180010
0!
#183000
b101011000111110011010011101011 8
b101011000111110011010011101011 G
#185000
b10000 =
b10000 K
b10000 :
b101011000111110011010011101011 5
b101011000111110011010011101011 ;
b101110000100010000101001100010 E
b1111 A
b1111 B
b101110000100010000101001100010 S
b1111 O
b1111 P
b10000 "
b10000 9
1$
#185010
b10000 1
b10000 <
b10000 J
b110000111110111100010101001101 '
b110000111110111100010101001101 2
b110000111110111100010101001101 ?
b110000111110111100010101001101 M
b10000 #
b110000111110111100010101001101 .
b10000 X
0%
1!
#186000
bx 8
bx G
#190000
0$
#190010
0!
#193000
b101110000100010000101001100010 8
b101110000100010000101001100010 G
#195000
b10001 =
b10001 K
b101110000100010000101001100010 5
b101110000100010000101001100010 ;
b10001 :
b10000 P
b110000111110111100010101001101 S
b10000 O
b10000 B
b110000111110111100010101001101 E
b10000 A
b10001 "
b10001 9
1$
#195010
b10001 1
b10001 <
b10001 J
b110011110111101111001010000111 '
b110011110111101111001010000111 2
b110011110111101111001010000111 ?
b110011110111101111001010000111 M
b10001 #
b110011110111101111001010000111 .
b10001 X
0%
1!
#196000
bx 8
bx G
#200000
0$
#200010
0!
#203000
b110000111110111100010101001101 8
b110000111110111100010101001101 G
#205000
b10010 =
b10010 K
b10010 :
b110000111110111100010101001101 5
b110000111110111100010101001101 ;
b110011110111101111001010000111 E
b10001 A
b10001 B
b110011110111101111001010000111 S
b10001 O
b10001 P
b10010 "
b10010 9
1$
#205010
b10010 1
b10010 <
b10010 J
b110110101110100010000000010011 '
b110110101110100010000000010011 2
b110110101110100010000000010011 ?
b110110101110100010000000010011 M
b10010 #
b110110101110100010000000010011 .
b10010 X
0%
1!
#206000
bx 8
bx G
#210000
0$
#210010
0!
#213000
b110011110111101111001010000111 8
b110011110111101111001010000111 G
#215000
b10011 =
b10011 K
b110011110111101111001010000111 5
b110011110111101111001010000111 ;
b10011 :
b10010 P
b110110101110100010000000010011 S
b10010 O
b10010 B
b110110101110100010000000010011 E
b10010 A
b10011 "
b10011 9
1$
#215010
b10011 1
b10011 <
b10011 J
b111001100011001101110100110010 '
b111001100011001101110100110010 2
b111001100011001101110100110010 ?
b111001100011001101110100110010 M
b10011 #
b111001100011001101110100110010 .
b10011 X
0%
1!
#216000
bx 8
bx G
#220000
0$
#220010
0!
#223000
b110110101110100010000000010011 8
b110110101110100010000000010011 G
#225000
b10100 =
b10100 K
b10100 :
b110110101110100010000000010011 5
b110110101110100010000000010011 ;
b111001100011001101110100110010 E
b10011 A
b10011 B
b111001100011001101110100110010 S
b10011 O
b10011 P
b10100 "
b10100 9
1$
#225010
b10100 1
b10100 <
b10100 J
b111100010101101011101001110000 '
b111100010101101011101001110000 2
b111100010101101011101001110000 ?
b111100010101101011101001110000 M
b10100 #
b111100010101101011101001110000 .
b10100 X
0%
1!
#226000
bx 8
bx G
#230000
0$
#230010
0!
#233000
b111001100011001101110100110010 8
b111001100011001101110100110010 G
#235000
b10101 =
b10101 K
b111001100011001101110100110010 5
b111001100011001101110100110010 ;
b10101 :
b10100 P
b111100010101101011101001110000 S
b10100 O
b10100 B
b111100010101101011101001110000 E
b10100 A
b10101 "
b10101 9
1$
#235010
b10101 1
b10101 <
b10101 J
b111111000101110100100110110111 '
b111111000101110100100110110111 2
b111111000101110100100110110111 ?
b111111000101110100100110110111 M
b10101 #
b111111000101110100100110110111 .
b10101 X
0%
1!
#236000
bx 8
bx G
#240000
0$
#240010
0!
#243000
b111100010101101011101001110000 8
b111100010101101011101001110000 G
#245000
b10110 =
b10110 K
b10110 :
b111100010101101011101001110000 5
b111100010101101011101001110000 ;
b111111000101110100100110110111 E
b10101 A
b10101 B
b111111000101110100100110110111 S
b10101 O
b10101 P
b10110 "
b10110 9
1$
#245010
b10110 1
b10110 <
b10110 J
b1000001110011100001111001100100 '
b1000001110011100001111001100100 2
b1000001110011100001111001100100 ?
b1000001110011100001111001100100 M
b10110 #
b1000001110011100001111001100100 .
b10110 X
0%
1!
#246000
bx 8
bx G
#250000
0$
#250010
0!
#253000
b111111000101110100100110110111 8
b111111000101110100100110110111 G
#255000
b10111 =
b10111 K
b111111000101110100100110110111 5
b111111000101110100100110110111 ;
b10111 :
b10110 P
b1000001110011100001111001100100 S
b10110 O
b10110 B
b1000001110011100001111001100100 E
b10110 A
b10111 "
b10111 9
1$
#255010
b10111 1
b10111 <
b10111 J
b1000100011110101100110101010000 '
b1000100011110101100110101010000 2
b1000100011110101100110101010000 ?
b1000100011110101100110101010000 M
b10111 #
b1000100011110101100110101010000 .
b10111 X
0%
1!
#256000
bx 8
bx G
#260000
0$
#260010
0!
#263000
b1000001110011100001111001100100 8
b1000001110011100001111001100100 G
#265000
b11000 =
b11000 K
b11000 :
b1000001110011100001111001100100 5
b1000001110011100001111001100100 ;
b1000100011110101100110101010000 E
b10111 A
b10111 B
b1000100011110101100110101010000 S
b10111 O
b10111 P
b11000 "
b11000 9
1$
#265010
b11000 1
b11000 <
b11000 J
b1000111000111001110110011100110 '
b1000111000111001110110011100110 2
b1000111000111001110110011100110 ?
b1000111000111001110110011100110 M
b11000 #
b1000111000111001110110011100110 .
b11000 X
0%
1!
#266000
bx 8
bx G
#270000
0$
#270010
0!
#273000
b1000100011110101100110101010000 8
b1000100011110101100110101010000 G
#275000
b11001 =
b11001 K
b1000100011110101100110101010000 5
b1000100011110101100110101010000 ;
b11001 :
b11000 P
b1000111000111001110110011100110 S
b11000 O
b11000 B
b1000111000111001110110011100110 E
b11000 A
b11001 "
b11001 9
1$
#275010
b11001 1
b11001 <
b11001 J
b1001001101101000001010100110011 '
b1001001101101000001010100110011 2
b1001001101101000001010100110011 ?
b1001001101101000001010100110011 M
b11001 #
b1001001101101000001010100110011 .
b11001 X
0%
1!
#276000
bx 8
bx G
#280000
0$
#280010
0!
#283000
b1000111000111001110110011100110 8
b1000111000111001110110011100110 G
#285000
b11010 =
b11010 K
b11010 :
b1000111000111001110110011100110 5
b1000111000111001110110011100110 ;
b1001001101101000001010100110011 E
b11001 A
b11001 B
b1001001101101000001010100110011 S
b11001 O
b11001 P
b11010 "
b11010 9
1$
#285010
b11010 1
b11010 <
b11010 J
b1001100001111111101111111110011 '
b1001100001111111101111111110011 2
b1001100001111111101111111110011 ?
b1001100001111111101111111110011 M
b11010 #
b1001100001111111101111111110011 .
b11010 X
0%
1!
#286000
bx 8
bx G
#290000
0$
#290010
0!
#293000
b1001001101101000001010100110011 8
b1001001101101000001010100110011 G
#295000
b11011 =
b11011 K
b1001001101101000001010100110011 5
b1001001101101000001010100110011 ;
b11011 :
b11010 P
b1001100001111111101111111110011 S
b11010 O
b11010 B
b1001100001111111101111111110011 E
b11010 A
b11011 "
b11011 9
1$
#295010
b11011 1
b11011 <
b11011 J
b1001110101111111110100010100100 '
b1001110101111111110100010100100 2
b1001110101111111110100010100100 ?
b1001110101111111110100010100100 M
b11011 #
b1001110101111111110100010100100 .
b11011 X
0%
1!
#296000
bx 8
bx G
#300000
0$
#300010
0!
#303000
b1001100001111111101111111110011 8
b1001100001111111101111111110011 G
#305000
b11100 =
b11100 K
b11100 :
b1001100001111111101111111110011 5
b1001100001111111101111111110011 ;
b1001110101111111110100010100100 E
b11011 A
b11011 B
b1001110101111111110100010100100 S
b11011 O
b11011 P
b11100 "
b11100 9
1$
#305010
b11100 1
b11100 <
b11100 J
b1010001001100111100110010010100 '
b1010001001100111100110010010100 2
b1010001001100111100110010010100 ?
b1010001001100111100110010010100 M
b11100 #
b1010001001100111100110010010100 .
b11100 X
0%
1!
#306000
bx 8
bx G
#310000
0$
#310010
0!
#313000
b1001110101111111110100010100100 8
b1001110101111111110100010100100 G
#315000
b11101 =
b11101 K
b1001110101111111110100010100100 5
b1001110101111111110100010100100 ;
b11101 :
b11100 P
b1010001001100111100110010010100 S
b11100 O
b11100 B
b1010001001100111100110010010100 E
b11100 A
b11101 "
b11101 9
1$
#315010
b11101 1
b11101 <
b11101 J
b1010011100110110010101011101111 '
b1010011100110110010101011101111 2
b1010011100110110010101011101111 ?
b1010011100110110010101011101111 M
b11101 #
b1010011100110110010101011101111 .
b11101 X
0%
1!
#316000
bx 8
bx G
#320000
0$
#320010
0!
#323000
b1010001001100111100110010010100 8
b1010001001100111100110010010100 G
#325000
b11110 =
b11110 K
b11110 :
b1010001001100111100110010010100 5
b1010001001100111100110010010100 ;
b1010011100110110010101011101111 E
b11101 A
b11101 B
b1010011100110110010101011101111 S
b11101 O
b11101 P
b11110 "
b11110 9
1$
#325010
b11110 1
b11110 <
b11110 J
b1010101111101011010010011010010 '
b1010101111101011010010011010010 2
b1010101111101011010010011010010 ?
b1010101111101011010010011010010 M
b11110 #
b1010101111101011010010011010010 .
b11110 X
0%
1!
#326000
bx 8
bx G
#330000
0$
#330010
0!
#333000
b1010011100110110010101011101111 8
b1010011100110110010101011101111 G
#335000
b11111 =
b11111 K
b1010011100110110010101011101111 5
b1010011100110110010101011101111 ;
b11111 :
b11110 P
b1010101111101011010010011010010 S
b11110 O
b11110 B
b1010101111101011010010011010010 E
b11110 A
b11111 "
b11111 9
1$
#335010
b11111 1
b11111 <
b11111 J
b1011000010000101101110101010100 '
b1011000010000101101110101010100 2
b1011000010000101101110101010100 ?
b1011000010000101101110101010100 M
b11111 #
b1011000010000101101110101010100 .
b11111 X
0%
1!
#336000
bx 8
bx G
#340000
0$
#340010
0!
#343000
b1010101111101011010010011010010 8
b1010101111101011010010011010010 G
#345000
b100000 =
b100000 K
b100000 :
b1010101111101011010010011010010 5
b1010101111101011010010011010010 ;
b1011000010000101101110101010100 E
b11111 A
b11111 B
b1011000010000101101110101010100 S
b11111 O
b11111 P
b100000 "
b100000 9
1$
#345010
b100000 1
b100000 <
b100000 J
b1011010100000100111100110011001 '
b1011010100000100111100110011001 2
b1011010100000100111100110011001 ?
b1011010100000100111100110011001 M
b100000 #
b1011010100000100111100110011001 .
b100000 X
0%
1!
#346000
bx 8
bx G
#350000
0$
#350010
0!
#353000
b1011000010000101101110101010100 8
b1011000010000101101110101010100 G
#355000
b100001 =
b100001 K
b1011000010000101101110101010100 5
b1011000010000101101110101010100 ;
b100001 :
b100000 P
b1011010100000100111100110011001 S
b100000 O
b100000 B
b1011010100000100111100110011001 E
b100000 A
b100001 "
b100001 9
1$
#355010
b100001 1
b100001 <
b100001 J
b1011100101101000010000011011111 '
b1011100101101000010000011011111 2
b1011100101101000010000011011111 ?
b1011100101101000010000011011111 M
b100001 #
b1011100101101000010000011011111 .
b100001 X
0%
1!
#356000
bx 8
bx G
#360000
0$
#360010
0!
#363000
b1011010100000100111100110011001 8
b1011010100000100111100110011001 G
#365000
b100010 =
b100010 K
b100010 :
b1011010100000100111100110011001 5
b1011010100000100111100110011001 ;
b1011100101101000010000011011111 E
b100001 A
b100001 B
b1011100101101000010000011011111 S
b100001 O
b100001 P
b100010 "
b100010 9
1$
#365010
b100010 1
b100010 <
b100010 J
b1011110110101110111110010001001 '
b1011110110101110111110010001001 2
b1011110110101110111110010001001 ?
b1011110110101110111110010001001 M
b100010 #
b1011110110101110111110010001001 .
b100010 X
0%
1!
#366000
bx 8
bx G
#370000
0$
#370010
0!
#373000
b1011100101101000010000011011111 8
b1011100101101000010000011011111 G
#375000
b100011 =
b100011 K
b1011100101101000010000011011111 5
b1011100101101000010000011011111 ;
b100011 :
b100010 P
b1011110110101110111110010001001 S
b100010 O
b100010 B
b1011110110101110111110010001001 E
b100010 A
b100011 "
b100011 9
1$
#375010
b100011 1
b100011 <
b100011 J
b1100000111011000011100000101111 '
b1100000111011000011100000101111 2
b1100000111011000011100000101111 ?
b1100000111011000011100000101111 M
b100011 #
b1100000111011000011100000101111 .
b100011 X
0%
1!
#376000
bx 8
bx G
#380000
0$
#380010
0!
#383000
b1011110110101110111110010001001 8
b1011110110101110111110010001001 G
#385000
b100100 =
b100100 K
b100100 :
b1011110110101110111110010001001 5
b1011110110101110111110010001001 ;
b1100000111011000011100000101111 E
b100011 A
b100011 B
b1100000111011000011100000101111 S
b100011 O
b100011 P
b100100 "
b100100 9
1$
#385010
b100100 1
b100100 <
b100100 J
b1100010111100100000000110101100 '
b1100010111100100000000110101100 2
b1100010111100100000000110101100 ?
b1100010111100100000000110101100 M
b100100 #
b1100010111100100000000110101100 .
b100100 X
0%
1!
#386000
bx 8
bx G
#390000
0$
#390010
0!
#393000
b1100000111011000011100000101111 8
b1100000111011000011100000101111 G
#395000
b100101 =
b100101 K
b1100000111011000011100000101111 5
b1100000111011000011100000101111 ;
b100101 :
b100100 P
b1100010111100100000000110101100 S
b100100 O
b100100 B
b1100010111100100000000110101100 E
b100100 A
b100101 "
b100101 9
1$
#395010
b100101 1
b100101 <
b100101 J
b1100100111010001000100100100101 '
b1100100111010001000100100100101 2
b1100100111010001000100100100101 ?
b1100100111010001000100100100101 M
b100101 #
b1100100111010001000100100100101 .
b100101 X
0%
1!
#396000
bx 8
bx G
#400000
0$
#400010
0!
#403000
b1100010111100100000000110101100 8
b1100010111100100000000110101100 G
#405000
b100110 =
b100110 K
b100110 :
b1100010111100100000000110101100 5
b1100010111100100000000110101100 ;
b1100100111010001000100100100101 E
b100101 A
b100101 B
b1100100111010001000100100100101 S
b100101 O
b100101 P
b100110 "
b100110 9
1$
#405010
b100110 1
b100110 <
b100110 J
b1100110110011111000000100011111 '
b1100110110011111000000100011111 2
b1100110110011111000000100011111 ?
b1100110110011111000000100011111 M
b100110 #
b1100110110011111000000100011111 .
b100110 X
0%
1!
#406000
bx 8
bx G
#410000
0$
#410010
0!
#413000
b1100100111010001000100100100101 8
b1100100111010001000100100100101 G
#415000
b100111 =
b100111 K
b1100100111010001000100100100101 5
b1100100111010001000100100100101 ;
b100111 :
b100110 P
b1100110110011111000000100011111 S
b100110 O
b100110 B
b1100110110011111000000100011111 E
b100110 A
b100111 "
b100111 9
1$
#415010
b100111 1
b100111 <
b100111 J
b1101000101001101001111010000000 '
b1101000101001101001111010000000 2
b1101000101001101001111010000000 ?
b1101000101001101001111010000000 M
b100111 #
b1101000101001101001111010000000 .
b100111 X
0%
1!
#416000
bx 8
bx G
#420000
0$
#420010
0!
#423000
b1100110110011111000000100011111 8
b1100110110011111000000100011111 G
#425000
b101000 =
b101000 K
b101000 :
b1100110110011111000000100011111 5
b1100110110011111000000100011111 ;
b1101000101001101001111010000000 E
b100111 A
b100111 B
b1101000101001101001111010000000 S
b100111 O
b100111 P
b101000 "
b101000 9
1$
#425010
b101000 1
b101000 <
b101000 J
b1101010011011011001100010100011 '
b1101010011011011001100010100011 2
b1101010011011011001100010100011 ?
b1101010011011011001100010100011 M
b101000 #
b1101010011011011001100010100011 .
b101000 X
0%
1!
#426000
bx 8
bx G
#430000
0$
#430010
0!
#433000
b1101000101001101001111010000000 8
b1101000101001101001111010000000 G
#435000
b101001 =
b101001 K
b1101000101001101001111010000000 5
b1101000101001101001111010000000 ;
b101001 :
b101000 P
b1101010011011011001100010100011 S
b101000 O
b101000 B
b1101010011011011001100010100011 E
b101000 A
b101001 "
b101001 9
1$
#435010
b101001 1
b101001 <
b101001 J
b1101100001001000010100101011111 '
b1101100001001000010100101011111 2
b1101100001001000010100101011111 ?
b1101100001001000010100101011111 M
b101001 #
b1101100001001000010100101011111 .
b101001 X
0%
1!
#436000
bx 8
bx G
#440000
0$
#440010
0!
#443000
b1101010011011011001100010100011 8
b1101010011011011001100010100011 G
#445000
b101010 =
b101010 K
b101010 :
b1101010011011011001100010100011 5
b1101010011011011001100010100011 ;
b1101100001001000010100101011111 E
b101001 A
b101001 B
b1101100001001000010100101011111 S
b101001 O
b101001 P
b101010 "
b101010 9
1$
#445010
b101010 1
b101010 <
b101010 J
b1101101110010100000110100010100 '
b1101101110010100000110100010100 2
b1101101110010100000110100010100 ?
b1101101110010100000110100010100 M
b101010 #
b1101101110010100000110100010100 .
b101010 X
0%
1!
#446000
bx 8
bx G
#450000
0$
#450010
0!
#453000
b1101100001001000010100101011111 8
b1101100001001000010100101011111 G
#455000
b101011 =
b101011 K
b1101100001001000010100101011111 5
b1101100001001000010100101011111 ;
b101011 :
b101010 P
b1101101110010100000110100010100 S
b101010 O
b101010 B
b1101101110010100000110100010100 E
b101010 A
b101011 "
b101011 9
1$
#455010
b101011 1
b101011 <
b101011 J
b1101111010111110000001010110001 '
b1101111010111110000001010110001 2
b1101111010111110000001010110001 ?
b1101111010111110000001010110001 M
b101011 #
b1101111010111110000001010110001 .
b101011 X
0%
1!
#456000
bx 8
bx G
#460000
0$
#460010
0!
#463000
b1101101110010100000110100010100 8
b1101101110010100000110100010100 G
#465000
b101100 =
b101100 K
b101100 :
b1101101110010100000110100010100 5
b1101101110010100000110100010100 ;
b1101111010111110000001010110001 E
b101011 A
b101011 B
b1101111010111110000001010110001 S
b101011 O
b101011 P
b101100 "
b101100 9
1$
#465010
b101100 1
b101100 <
b101100 J
b1110000111000101100101111000101 '
b1110000111000101100101111000101 2
b1110000111000101100101111000101 ?
b1110000111000101100101111000101 M
b101100 #
b1110000111000101100101111000101 .
b101100 X
0%
1!
#466000
bx 8
bx G
#470000
0$
#470010
0!
#473000
b1101111010111110000001010110001 8
b1101111010111110000001010110001 G
